Delayed Data Loading
…
Data can be loaded using load_dataset() function. Before
data is loaded, adsl_conn contains reproducible code which
is also the code to pull the data.

# execution/reproducible code
get_code(adsl_conn)
#> [1] "ADSL <- scda::synthetic_cdisc_dataset(dataset_name = \"adsl\", name = \"latest\")"

# pull data
load_dataset(adsl_conn)

# get raw data
get_raw_data(adsl_conn)
#> # A tibble: 400 × 44
#>    STUDYID USUBJID    SUBJID SITEID   AGE AGEU  SEX   RACE  ETHNIC COUNTRY DTHFL
#>    <chr>   <chr>      <chr>  <chr>  <int> <fct> <fct> <fct> <fct>  <fct>   <fct>
#>  1 AB12345 AB12345-C… id-128 CHN-3     32 YEARS M     ASIAN NOT H… CHN     N    
#>  2 AB12345 AB12345-C… id-262 CHN-15    35 YEARS M     BLAC… NOT H… CHN     N    
#>  3 AB12345 AB12345-R… id-378 RUS-3     30 YEARS F     ASIAN NOT H… RUS     N    
#>  4 AB12345 AB12345-C… id-220 CHN-11    26 YEARS F     ASIAN NOT H… CHN     N    
#>  5 AB12345 AB12345-C… id-267 CHN-7     40 YEARS M     ASIAN UNKNO… CHN     N    
#>  6 AB12345 AB12345-C… id-201 CHN-15    49 YEARS M     ASIAN NOT H… CHN     N    
#>  7 AB12345 AB12345-U… id-45  USA-1     34 YEARS F     ASIAN NOT H… USA     N    
#>  8 AB12345 AB12345-U… id-261 USA-1     32 YEARS F     ASIAN NOT H… USA     N    
#>  9 AB12345 AB12345-N… id-173 NGA-11    24 YEARS F     BLAC… NOT H… NGA     N    
#> 10 AB12345 AB12345-C… id-307 CHN-1     24 YEARS M     ASIAN NOT H… CHN     N    
#> # … with 390 more rows, and 33 more variables: INVID <chr>, INVNAM <chr>,
#> #   ARM <fct>, ARMCD <fct>, ACTARM <fct>, ACTARMCD <fct>, TRT01P <fct>,
#> #   TRT01A <fct>, REGION1 <fct>, STRATA1 <fct>, STRATA2 <fct>, BMRKR1 <dbl>,
#> #   BMRKR2 <fct>, ITTFL <fct>, SAFFL <fct>, BMEASIFL <fct>, BEP01FL <fct>,
#> #   RANDDT <date>, TRTSDTM <dttm>, TRTEDTM <dttm>, EOSSTT <fct>, EOTSTT <fct>,
#> #   EOSDT <date>, EOSDY <int>, DCSREAS <fct>, DTHDT <date>, DTHCAUS <fct>,
#> #   DTHCAT <fct>, LDDTHELD <int>, LDDTHGR1 <fct>, LSTALVDT <date>, …
…
